[gd_resource type="Resource" script_class="Quest" load_steps=2 format=3 uid="uid://dnu0tkttlr8gf"]

[ext_resource type="Script" path="res://Scripts/Dialogue/Quest.gd" id="1_wmvca"]

[resource]
script = ExtResource("1_wmvca")
title = "Enojo"
description = "Vence a Enojo"
objetive = "Fetch"
object = "Enojo"
status = ""
