[gd_scene load_steps=3 format=3 uid="uid://nb3jb5ykh6xy"]

[ext_resource type="Script" path="res://Scripts/Dialogue/interaction.gd" id="1_2eh7a"]

[sub_resource type="CircleShape2D" id="CircleShape2D_hdrdt"]
radius = 37.0135

[node name="Interaction" type="Area2D"]
script = ExtResource("1_2eh7a")

[node name="CollisionShape2D" type="CollisionShape2D" parent="."]
shape = SubResource("CircleShape2D_hdrdt")

[node name="Label" type="Label" parent="."]
unique_name_in_owner = true
visible = false
modulate = Color(0.800729, 0.800729, 7.70092e-07, 1)
offset_left = -37.0
offset_top = -83.0
offset_right = 3.0
offset_bottom = -60.0
scale = Vector2(1.88, 2.2)
text = "!"
horizontal_alignment = 1

[connection signal="body_entered" from="." to="." method="_on_body_entered"]
[connection signal="body_exited" from="." to="." method="_on_body_exited"]
