[gd_scene load_steps=4 format=3 uid="uid://ldsww0efws6t"]

[ext_resource type="Script" path="res://Scripts/TypingMechanic.gd" id="1_41gu6"]
[ext_resource type="FontFile" uid="uid://cte50ewk5dgib" path="res://Fonts/PixelRpgFont-Regular.ttf" id="2_le4el"]
[ext_resource type="PackedScene" uid="uid://3qvt1eksc5m" path="res://Nodes/Typ.tscn" id="2_ubh6d"]

[node name="TypingMechanic" type="Node2D"]
script = ExtResource("1_41gu6")
word_to_type = ["asd", "asd", "asd", "asd", "asd", "asd", "asd"]

[node name="Label" type="Label" parent="."]
offset_left = 1.0
offset_top = 1.0
offset_right = 79.0
offset_bottom = 24.0
theme_override_fonts/font = ExtResource("2_le4el")

[node name="LineEdit" parent="." instance=ExtResource("2_ubh6d")]
anchors_preset = 0
anchor_right = 0.0
anchor_bottom = 0.0
offset_left = 1.0
offset_top = 24.0
offset_right = 79.0
offset_bottom = 55.0
grow_horizontal = 1
grow_vertical = 1
theme_override_fonts/font = ExtResource("2_le4el")
expand_to_text_length = true

[connection signal="focus_entered" from="LineEdit" to="." method="_on_line_edit_focus_entered"]
[connection signal="focus_exited" from="LineEdit" to="." method="_on_line_edit_focus_exited"]
