[gd_scene load_steps=2 format=3 uid="uid://cmx1eixp82c5e"]

[ext_resource type="Script" path="res://Scripts/UI/ActionButton.gd" id="1_g7bpg"]

[node name="ActionButton" type="Button"]
offset_right = 8.0
offset_bottom = 8.0
script = ExtResource("1_g7bpg")

[connection signal="pressed" from="." to="." method="_on_pressed"]
